Visualizing Data
…
map_leaflet(p = p_pop, m = m_pop, summary = "none")

We can also summarize data by individual for plotting of individual maps.

This is virtually identical to what we did above, except that we add one more variable to group by and we don’t correct for the number of individuals:

p_indiv <- p %>%
  group_by(animal_id, logger_id) %>%
  summarize(amount = sum(length))

## `summarise()` has grouped output by 'animal_id'. You can override using the `.groups` argument.

p_indiv

## # A tibble: 23 × 3
## # Groups:   animal_id [11]
##    animal_id  logger_id   amount
##    <fct>      <fct>        <dbl>
##  1 041868E9A8 2100        2.02  
##  2 041868E9A8 2200      190.    
##  3 041868E9A8 2700       14.5   
##  4 041869123C 2200       23.8   
##  5 06200003AA 2100       23.2   
##  6 06200003AA 2700      312.    
##  7 0620000400 2100        7.77  
##  8 0620000400 2700       24.8   
##  9 062000043E 2700        0.0333
## 10 0620000477 2100       14.4   
## # … with 13 more rows

m_indiv <- m %>%
  group_by(animal_id, move_path, logger_id, lat, lon) %>%
  summarize(path_use = length(move_path))

## `summarise()` has grouped output by 'animal_id', 'move_path', 'logger_id', 'lat'. You can override using the `.groups` argument.

m_indiv

## # A tibble: 32 × 6
## # Groups:   animal_id, move_path, logger_id, lat [32]
##    animal_id  move_path logger_id   lat   lon path_use
##    <fct>      <fct>     <fct>     <dbl> <dbl>    <int>
##  1 041868E9A8 2100_2700 2100       50.7 -120.        1
##  2 041868E9A8 2100_2700 2700       50.7 -120.        1
##  3 041868E9A8 2200_2700 2200       50.7 -120.        3
##  4 041868E9A8 2200_2700 2700       50.7 -120.        3
##  5 06200003AA 2100_2700 2100       50.7 -120.        6
##  6 06200003AA 2100_2700 2700       50.7 -120.        6
##  7 0620000400 2100_2700 2100       50.7 -120.        3
##  8 0620000400 2100_2700 2700       50.7 -120.        3
##  9 0620000477 2100_2700 2100       50.7 -120.        8
## 10 0620000477 2100_2700 2700       50.7 -120.        8
## # … with 22 more rows
…
