Transforming/Summarizing Data
…
Note that several of these new values could also have been obtained by hand:

length(unique(v$animal_id))

## [1] 11

length(unique(v$logger_id))

## [1] 4

species, sex, lon and lat are all columns originally in the finches_lg data set, they were automatically passed through the visits() function. Columns of extra data that are associated with either a date, an animal_id, or a logger_id will always be passed through unless pass = FALSE:

visits(finches_lg, pass = FALSE)

## # A tibble: 2,945 x 7
##     animal_id       date               start                 end logger_id animal_n logger_n
##        <fctr>     <date>              <dttm>              <dttm>    <fctr>    <int>    <int>
##  1 041868E9A8 2015-10-02 2015-10-01 16:38:52 2015-10-01 16:39:00      2100       11        4
##  2 041868E9A8 2015-10-02 2015-10-01 16:39:12 2015-10-01 16:39:12      2100       11        4
##  3 041868E9A8 2015-10-02 2015-10-01 16:40:53 2015-10-01 16:40:53      2100       11        4
##  4 041868E9A8 2015-10-02 2015-10-01 16:45:00 2015-10-01 16:45:56      2700       11        4
##  5 041868E9A8 2015-10-02 2015-10-01 16:46:31 2015-10-01 16:46:31      2700       11        4
##  6 041868E9A8 2015-10-02 2015-10-01 16:51:03 2015-10-01 16:51:16      2700       11        4
##  7 041868E9A8 2015-10-02 2015-10-01 16:51:42 2015-10-01 16:51:58      2700       11        4
##  8 041868E9A8 2015-10-02 2015-10-01 16:52:51 2015-10-01 16:53:07      2700       11        4
##  9 041868E9A8 2015-10-02 2015-10-01 16:53:41 2015-10-01 16:54:57      2700       11        4
## 10 041868E9A8 2015-10-02 2015-10-01 16:56:42 2015-10-01 16:56:42      2700       11        4
## # ... with 2,935 more rows

bw

Depending on the interval between reads in your RFID logger, you may have to adjust the value of bw which specifies how many seconds between reads separates two visits. The default is 3 seconds, but if your loggers scan at a slower interval, you will need to adjust the bw argument:

visits(finches_lg, bw = 15)

## # A tibble: 1,957 x 13
##     animal_id       date               start                 end logger_id animal_n logger_n     species    site_name   age   sex       lon      lat
##        <fctr>     <date>              <dttm>              <dttm>    <fctr>    <int>    <int>       <chr>        <chr> <chr> <chr>     <dbl>    <dbl>
##  1 041868E9A8 2015-10-02 2015-10-01 16:38:52 2015-10-01 16:39:12      2100       11        4        <NA>         <NA>   AHY     F -120.3624 50.66896
##  2 041868E9A8 2015-10-02 2015-10-01 16:40:53 2015-10-01 16:40:53      2100       11        4        <NA>         <NA>   AHY     F -120.3624 50.66896
##  3 041868E9A8 2015-10-02 2015-10-01 16:45:00 2015-10-01 16:45:56      2700       11        4        <NA>         <NA>   AHY     F -120.3632 50.66909
##  4 041868E9A8 2015-10-02 2015-10-01 16:46:31 2015-10-01 16:46:31      2700       11        4        <NA>         <NA>   AHY     F -120.3632 50.66909
##  5 041868E9A8 2015-10-02 2015-10-01 16:51:03 2015-10-01 16:51:16      2700       11        4        <NA>         <NA>   AHY     F -120.3632 50.66909
##  6 041868E9A8 2015-10-02 2015-10-01 16:51:42 2015-10-01 16:51:58      2700       11        4        <NA>         <NA>   AHY     F -120.3632 50.66909
##  7 041868E9A8 2015-10-02 2015-10-01 16:52:51 2015-10-01 16:53:07      2700       11        4        <NA>         <NA>   AHY     F -120.3632 50.66909
##  8 041868E9A8 2015-10-02 2015-10-01 16:53:41 2015-10-01 16:54:57      2700       11        4        <NA>         <NA>   AHY     F -120.3632 50.66909
##  9 041868E9A8 2015-10-02 2015-10-01 16:56:42 2015-10-01 16:56:42      2700       11        4        <NA>         <NA>   AHY     F -120.3632 50.66909
## 10 041868E9A8 2015-10-02 2015-10-02 09:57:00 2015-10-02 09:57:14      2200       11        4 House Finch Kamloops, BC   AHY     F -120.3612 50.66778
## # ... with 1,947 more rows
…
